C:\nswpf\nswpf\src\main\java\com\nswpf\nswpf\App.java
C:\nswpf\nswpf\src\main\java\com\nswpf\utils\BrowserFactory.java
C:\nswpf\nswpf\src\main\java\com\nswpf\utils\BrowserDriver.java
C:\nswpf\nswpf\src\main\java\com\nswpf\constants\Browsers.java
C:\nswpf\nswpf\src\main\java\com\nswpf\utils\Config.java
C:\nswpf\nswpf\src\main\java\com\nswpf\utils\FileUtils.java
C:\nswpf\nswpf\src\main\java\com\nswpf\nswpf\CreateEvent.java
